<?xml version="1.0" encoding="UTF-8" standalone="no"?>
<!-- Created with Inkscape (http://www.inkscape.org/) -->

<svg
   xmlns:dc="http://purl.org/dc/elements/1.1/"
   xmlns:cc="http://creativecommons.org/ns#"
   xmlns:rdf="http://www.w3.org/1999/02/22-rdf-syntax-ns#"
   xmlns:svg="http://www.w3.org/2000/svg"
   xmlns="http://www.w3.org/2000/svg"
   xmlns:sodipodi="http://sodipodi.sourceforge.net/DTD/sodipodi-0.dtd"
   xmlns:inkscape="http://www.inkscape.org/namespaces/inkscape"
   version="1.1"
   id="svg2"
   width="50"
   height="50"
   viewBox="0 0 50.000001 49.999998"
   sodipodi:docname="cctv_none.svg"
   inkscape:version="0.92.4 5da689c313, 2019-01-14">
  <metadata
     id="metadata8">
    <rdf:RDF>
      <cc:Work
         rdf:about="">
        <dc:format>image/svg+xml</dc:format>
        <dc:type
           rdf:resource="http://purl.org/dc/dcmitype/StillImage" />
        <dc:title />
      </cc:Work>
    </rdf:RDF>
  </metadata>
  <defs
     id="defs6">
    <clipPath
       clipPathUnits="userSpaceOnUse"
       id="clipPath879">
      <circle
         style="opacity:1;fill:#cccccc;fill-opacity:1;stroke:none;stroke-width:380.34643555;stroke-linecap:round;stroke-linejoin:round;stroke-miterlimit:4;stroke-dasharray:none;stroke-opacity:1;paint-order:stroke fill markers"
         id="circle881"
         cx="25"
         cy="25"
         r="25"
         clip-path="none" />
    </clipPath>
  </defs>
  <sodipodi:namedview
     pagecolor="#ffffff"
     bordercolor="#666666"
     borderopacity="1"
     objecttolerance="10"
     gridtolerance="10"
     guidetolerance="10"
     inkscape:pageopacity="0"
     inkscape:pageshadow="2"
     inkscape:window-width="1920"
     inkscape:window-height="1016"
     id="namedview4"
     showgrid="false"
     fit-margin-top="0"
     fit-margin-left="0"
     fit-margin-right="0"
     fit-margin-bottom="0"
     inkscape:zoom="11.313708"
     inkscape:cx="-7.9517471"
     inkscape:cy="23.5847"
     inkscape:window-x="0"
     inkscape:window-y="27"
     inkscape:window-maximized="1"
     inkscape:current-layer="svg2" />
  <circle
     style="opacity:1;fill:#cccccc;fill-opacity:1;stroke:none;stroke-width:380.34643555;stroke-linecap:round;stroke-linejoin:round;stroke-miterlimit:4;stroke-dasharray:none;stroke-opacity:1;paint-order:stroke fill markers"
     id="path969"
     cx="25"
     cy="25"
     r="25"
     clip-path="none" />
  <path
     inkscape:connector-curvature="0"
     id="path1337"
     d="m 36.375,6.1914062 c -0.199706,0 -1.564789,0.5997773 -3.029297,1.3320313 C 28.253211,10.086325 11.361429,18.705333 8.515625,20.203125 5.9028106,21.56778 5.6367187,21.735354 5.6367188,22.134766 c 0.016642,1.115022 0.032882,1.114678 6.1738282,2.945312 3.145362,0.948602 5.858969,1.730469 6.025391,1.730469 0.183063,0 2.463356,-1.098317 5.076171,-2.429688 2.629456,-1.348012 6.240777,-3.195075 8.021485,-4.09375 7.056264,-3.611342 9.968506,-5.191774 10.068359,-5.441406 0.06657,-0.166421 -0.58334,-1.648087 -1.648437,-3.794922 C 37.206681,6.7238275 36.874264,6.1747642 36.375,6.1914062 Z M 41.867188,16.34375 c -0.116496,0 -5.559253,2.728215 -12.09961,6.056641 -6.540357,3.345068 -11.9646,6.074218 -12.064453,6.074218 -0.08321,0 -1.665459,-0.481978 -3.496094,-1.064453 -1.830634,-0.582474 -3.343669,-1.032267 -3.376953,-1.015625 -0.116495,0.09985 2.629112,5.359661 2.945313,5.642578 0.299558,0.266274 0.549523,0.165668 6.673828,-2.896484 3.494847,-1.747424 6.389607,-3.162191 6.40625,-3.128906 0.03328,0.03328 1.399304,1.96307 3.046875,4.292969 2.596173,3.67791 2.962197,4.294111 2.845703,4.626953 -0.08321,0.216348 -0.150391,0.865726 -0.150391,1.464843 0,1.348012 0.399992,2.214158 1.365235,2.896485 1.348013,0.981886 2.844248,1.064529 4.242187,0.232422 0.432696,-0.266274 0.832887,-0.465862 0.882813,-0.449219 0.04993,0.01664 1.331188,0.23279 2.878906,0.482422 l 5.541015,0.929687 0.34375,-3.40039 -3.9375,-0.673829 c -0.46598,-0.04993 -1.513596,-0.233033 -2.345703,-0.382812 l -1.482421,-0.267578 -0.431641,-0.898438 c -0.682328,-1.431223 -1.882051,-2.213826 -3.396485,-2.230468 -0.54919,-0.01664 -0.64808,-0.115452 -1.996093,-2.029297 -2.629456,-3.777763 -4.160157,-6.04061 -4.160157,-6.207031 0,-0.09985 2.546126,-1.464856 5.658204,-3.0625 6.8732,-3.528132 6.65625,-3.396123 6.65625,-3.945313 0,-0.532548 -0.282555,-1.063517 -0.548828,-1.046875 z M 8.3339844,25.3125 c -0.066569,0.01664 -0.7821919,0.366133 -1.5976563,0.798828 -0.8154644,0.432696 -1.4814858,0.832805 -1.4648437,0.916016 0.016642,0.06657 0.5822805,1.231048 1.28125,2.595703 l 1.2636718,2.496094 0.6171876,-0.265625 c 1.2315176,-0.515906 2.5292972,-1.23108 2.5292972,-1.38086 0,-0.282916 -2.4791275,-5.160156 -2.6289066,-5.160156 z"
     style="fill:#cccccc;stroke:#000000;stroke-width:2.5;fill-opacity:1;stroke-opacity:1;stroke-miterlimit:4;stroke-dasharray:none;paint-order:markers stroke fill;stroke-linejoin:round"
     clip-path="url(#clipPath879)" />
</svg>
