<?xml version="1.0" encoding="UTF-8" standalone="no"?>
<!-- Created with Inkscape (http://www.inkscape.org/) -->

<svg
   xmlns:dc="http://purl.org/dc/elements/1.1/"
   xmlns:cc="http://creativecommons.org/ns#"
   xmlns:rdf="http://www.w3.org/1999/02/22-rdf-syntax-ns#"
   xmlns:svg="http://www.w3.org/2000/svg"
   xmlns="http://www.w3.org/2000/svg"
   xmlns:sodipodi="http://sodipodi.sourceforge.net/DTD/sodipodi-0.dtd"
   xmlns:inkscape="http://www.inkscape.org/namespaces/inkscape"
   version="1.1"
   id="svg2"
   width="50"
   height="50"
   viewBox="0 0 50.000001 49.999998"
   sodipodi:docname="point_party.svg"
   inkscape:version="0.92.4 5da689c313, 2019-01-14">
  <metadata
     id="metadata8">
    <rdf:RDF>
      <cc:Work
         rdf:about="">
        <dc:format>image/svg+xml</dc:format>
        <dc:type
           rdf:resource="http://purl.org/dc/dcmitype/StillImage" />
        <dc:title></dc:title>
      </cc:Work>
    </rdf:RDF>
  </metadata>
  <defs
     id="defs6" />
  <sodipodi:namedview
     pagecolor="#ffffff"
     bordercolor="#666666"
     borderopacity="1"
     objecttolerance="10"
     gridtolerance="10"
     guidetolerance="10"
     inkscape:pageopacity="0"
     inkscape:pageshadow="2"
     inkscape:window-width="1920"
     inkscape:window-height="1016"
     id="namedview4"
     showgrid="false"
     fit-margin-top="0"
     fit-margin-left="0"
     fit-margin-right="0"
     fit-margin-bottom="0"
     inkscape:zoom="11.313708"
     inkscape:cx="24.175519"
     inkscape:cy="24.587378"
     inkscape:window-x="0"
     inkscape:window-y="27"
     inkscape:window-maximized="1"
     inkscape:current-layer="g1177" />
  <circle
     style="opacity:1;fill:#cccccc;fill-opacity:1;stroke:none;stroke-width:380.34643555;stroke-linecap:round;stroke-linejoin:round;stroke-miterlimit:4;stroke-dasharray:none;stroke-opacity:1;paint-order:stroke fill markers"
     id="path969"
     cx="25"
     cy="25"
     r="25" />
  <g
     id="g1177"
     transform="translate(10.295454,20.111896)">
    <g
       style="fill:#f3c611;fill-opacity:1;stroke:#000000;stroke-width:13.92322681;stroke-linejoin:round;stroke-miterlimit:4;stroke-dasharray:none;stroke-opacity:1;paint-order:markers stroke fill"
       id="g12"
       transform="matrix(0.11491589,0,0,-0.11491589,-8.2786322,29.583129)">
      <g
         transform="translate(8.3281037,0.39775013)"
         id="g830"
         style="fill:#f3c611;fill-opacity:1;stroke:#000000;stroke-width:13.92322681;stroke-linejoin:round;stroke-miterlimit:4;stroke-dasharray:none;stroke-opacity:1;paint-order:markers stroke fill">
        <path
           d="M 40,341 C 27.196177,320.81871 27.839521,293.80241 30,270 35.001319,214.89953 45.363773,174.49537 82.363773,112.49537 107.39464,123.4475 133.52899,132.85063 157.2647,142.71053 l -3.02477,49.80961 c -1,34 -1.99042,72.78756 -18.6037,103.74456 C 121.10199,323.34765 99.607686,357.18927 69,360 57.491798,361.05681 46.191104,350.75837 40,341 Z"
           id="path4"
           inkscape:connector-curvature="0"
           sodipodi:nodetypes="aacccaaa"
           style="fill:#f3c611;fill-opacity:1;stroke:#000000;stroke-width:13.92322681;stroke-linejoin:round;stroke-miterlimit:4;stroke-dasharray:none;stroke-opacity:1;paint-order:markers stroke fill" />
        <path
           d="M 86.239182,106.67507 C 84.54571,101.72117 87.826664,92.754871 92,80 c 12.48934,-38.170884 41,-55 67,-41 27,15 29.53182,32.382708 15,69 -6.94838,17.50853 -10.4131,22.29829 -15.25797,29.01385 -22.12871,-8.2394 -55.72823,-21.34329 -72.502848,-30.33878 z"
           id="path8"
           inkscape:connector-curvature="0"
           sodipodi:nodetypes="cscscc"
           style="fill:#f3c611;fill-opacity:1;stroke:#000000;stroke-width:13.92322681;stroke-linejoin:round;stroke-miterlimit:4;stroke-dasharray:none;stroke-opacity:1;paint-order:markers stroke fill" />
      </g>
      <g
         id="g830-3"
         style="fill:#f3c611;fill-opacity:1;stroke:#000000;stroke-width:13.92322681;stroke-linejoin:round;stroke-miterlimit:4;stroke-dasharray:none;stroke-opacity:1;paint-order:markers stroke fill"
         transform="matrix(-1,0,0,1,391.6719,0.39775013)">
        <path
           d="M 40,341 C 27.196177,320.81871 27.839521,293.80241 30,270 35.001319,214.89953 45.363773,174.49537 82.363773,112.49537 107.39464,123.4475 133.52899,132.85063 157.2647,142.71053 l -3.02477,49.80961 c -1,34 -1.99042,72.78756 -18.6037,103.74456 C 121.10199,323.34765 99.607686,357.18927 69,360 57.491798,361.05681 46.191104,350.75837 40,341 Z"
           id="path4-6"
           inkscape:connector-curvature="0"
           sodipodi:nodetypes="aacccaaa"
           style="fill:#f3c611;fill-opacity:1;stroke:#000000;stroke-width:13.92322681;stroke-linejoin:round;stroke-miterlimit:4;stroke-dasharray:none;stroke-opacity:1;paint-order:markers stroke fill" />
        <path
           d="M 86.239182,106.67507 C 84.54571,101.72117 87.826664,92.754871 92,80 c 12.48934,-38.170884 41,-55 67,-41 27,15 29.53182,32.382708 15,69 -6.94838,17.50853 -10.4131,22.29829 -15.25797,29.01385 -22.12871,-8.2394 -55.72823,-21.34329 -72.502848,-30.33878 z"
           id="path8-7"
           inkscape:connector-curvature="0"
           sodipodi:nodetypes="cscscc"
           style="fill:#f3c611;fill-opacity:1;stroke:#000000;stroke-width:13.92322681;stroke-linejoin:round;stroke-miterlimit:4;stroke-dasharray:none;stroke-opacity:1;paint-order:markers stroke fill" />
      </g>
    </g>
  </g>
</svg>
