{

    "cctv_myself": {
        "height": 100,
        "pixelRatio": 2,
        "width": 100,
        "x": 0,
        "y": 0
    }
,

    "cctv_none": {
        "height": 100,
        "pixelRatio": 2,
        "width": 100,
        "x": 100,
        "y": 0
    }
,

    "cctv_party": {
        "height": 100,
        "pixelRatio": 2,
        "width": 100,
        "x": 200,
        "y": 0
    }
,

    "cctv_resistance": {
        "height": 100,
        "pixelRatio": 2,
        "width": 100,
        "x": 300,
        "y": 0
    }
,

    "gathering": {
        "height": 100,
        "pixelRatio": 2,
        "width": 100,
        "x": 400,
        "y": 0
    }
,

    "interrogation_party": {
        "height": 100,
        "pixelRatio": 2,
        "width": 100,
        "x": 500,
        "y": 0
    }
,

    "interrogation_resistance": {
        "height": 100,
        "pixelRatio": 2,
        "width": 100,
        "x": 600,
        "y": 0
    }
,

    "myself": {
        "height": 100,
        "pixelRatio": 2,
        "width": 100,
        "x": 700,
        "y": 0
    }
,

    "none": {
        "height": 100,
        "pixelRatio": 2,
        "width": 100,
        "x": 800,
        "y": 0
    }
,

    "party": {
        "height": 100,
        "pixelRatio": 2,
        "width": 100,
        "x": 900,
        "y": 0
    }
,

    "resistance": {
        "height": 100,
        "pixelRatio": 2,
        "width": 100,
        "x": 1000,
        "y": 0
    }
,

    "sabotage_party": {
        "height": 100,
        "pixelRatio": 2,
        "width": 100,
        "x": 1100,
        "y": 0
    }
,

    "sabotage_resistance": {
        "height": 100,
        "pixelRatio": 2,
        "width": 100,
        "x": 1200,
        "y": 0
    }
,

    "vaporization_party": {
        "height": 100,
        "pixelRatio": 2,
        "width": 100,
        "x": 1300,
        "y": 0
    }
,

    "vaporization_resistance": {
        "height": 100,
        "pixelRatio": 2,
        "width": 100,
        "x": 1400,
        "y": 0
    }
}
