{

    "cctv_myself": {
        "height": 50,
        "pixelRatio": 1,
        "width": 50,
        "x": 0,
        "y": 0
    }
,

    "cctv_none": {
        "height": 50,
        "pixelRatio": 1,
        "width": 50,
        "x": 50,
        "y": 0
    }
,

    "cctv_party": {
        "height": 50,
        "pixelRatio": 1,
        "width": 50,
        "x": 100,
        "y": 0
    }
,

    "cctv_resistance": {
        "height": 50,
        "pixelRatio": 1,
        "width": 50,
        "x": 150,
        "y": 0
    }
,

    "gathering": {
        "height": 50,
        "pixelRatio": 1,
        "width": 50,
        "x": 200,
        "y": 0
    }
,

    "interrogation_party": {
        "height": 50,
        "pixelRatio": 1,
        "width": 50,
        "x": 250,
        "y": 0
    }
,

    "interrogation_resistance": {
        "height": 50,
        "pixelRatio": 1,
        "width": 50,
        "x": 300,
        "y": 0
    }
,

    "myself": {
        "height": 50,
        "pixelRatio": 1,
        "width": 50,
        "x": 350,
        "y": 0
    }
,

    "none": {
        "height": 50,
        "pixelRatio": 1,
        "width": 50,
        "x": 400,
        "y": 0
    }
,

    "party": {
        "height": 50,
        "pixelRatio": 1,
        "width": 50,
        "x": 450,
        "y": 0
    }
,

    "resistance": {
        "height": 50,
        "pixelRatio": 1,
        "width": 50,
        "x": 500,
        "y": 0
    }
,

    "sabotage_party": {
        "height": 50,
        "pixelRatio": 1,
        "width": 50,
        "x": 550,
        "y": 0
    }
,

    "sabotage_resistance": {
        "height": 50,
        "pixelRatio": 1,
        "width": 50,
        "x": 600,
        "y": 0
    }
,

    "vaporization_party": {
        "height": 50,
        "pixelRatio": 1,
        "width": 50,
        "x": 650,
        "y": 0
    }
,

    "vaporization_resistance": {
        "height": 50,
        "pixelRatio": 1,
        "width": 50,
        "x": 700,
        "y": 0
    }
}
